Group 8: Hotel Bookings
…
## See spec(...) for full column specifications.

hotels

## # A tibble: 119,390 x 32
##    hotel is_canceled lead_time arrival_date_ye~ arrival_date_mo~
##    <chr>       <dbl>     <dbl>            <dbl> <chr>           
##  1 Reso~           0       342             2015 July            
##  2 Reso~           0       737             2015 July            
##  3 Reso~           0         7             2015 July            
##  4 Reso~           0        13             2015 July            
##  5 Reso~           0        14             2015 July            
##  6 Reso~           0        14             2015 July            
##  7 Reso~           0         0             2015 July            
##  8 Reso~           0         9             2015 July            
##  9 Reso~           1        85             2015 July            
## 10 Reso~           1        75             2015 July            
## # ... with 119,380 more rows, and 27 more variables:
## #   arrival_date_week_number <dbl>, arrival_date_day_of_month <dbl>,
## #   stays_in_weekend_nights <dbl>, stays_in_week_nights <dbl>, adults <dbl>,
## #   children <dbl>, babies <dbl>, meal <chr>, country <chr>,
## #   market_segment <chr>, distribution_channel <chr>, is_repeated_guest <dbl>,
## #   previous_cancellations <dbl>, previous_bookings_not_canceled <dbl>,
## #   reserved_room_type <chr>, assigned_room_type <chr>, booking_changes <dbl>,
## #   deposit_type <chr>, agent <chr>, company <chr>, days_in_waiting_list <dbl>,
## #   customer_type <chr>, adr <dbl>, required_car_parking_spaces <dbl>,
…
write.table(means_hotel_stays, file = "hotel_stays_means.txt")

PART 3: Countries / Lead Time - Alex:

I was initially interested in the country by country data, which is difficult to visualize with a simple graph as there are hundreds of countries in the data-set, so I used the rworldmap package. The hotels data set includes the country data in the form of iso3 country codes, which allows the hotel data to be joined to the correct country on the world map. Visualizing the data in map form allows us to see that the average daily rate (defined by dividing the sum of all lodging transactions by the total number of staying nights within a country) appears to be higher in the U.S. and other countries such as Kazakhstan. First, I had to manipulate the data by using group_by to group the data for each country. Then I took the mean of the average daily rate for each country.

by_country <- hotels %>% 
  group_by(country) %>% 
  summarise(mean_adr=mean(adr))

## `summarise()` ungrouping output (override with `.groups` argument)

print(by_country)

## # A tibble: 178 x 2
##    country mean_adr
##    <chr>      <dbl>
##  1 ABW        128. 
##  2 AGO        117. 
##  3 AIA        265  
##  4 ALB         84.4
##  5 AND        203. 
##  6 ARE        136. 
##  7 ARG        118. 
##  8 ARM        100. 
##  9 ASM         72.1
## 10 ATA        134. 
## # ... with 168 more rows
…
